<?xml version="1.0" encoding="utf-8"?>
<svg width="18px" height="18px" viewBox="0 0 18 18" version="1.1" xmlns:xlink="http://www.w3.org/1999/xlink" xmlns="http://www.w3.org/2000/svg">
  <desc>Created with Lunacy</desc>
  <g id="Exit">
    <g id="Exit">
      <path d="M17.7785 0L0 17.7785" transform="translate(0.1258174 0.01753934)" id="Path-8" fill="none" stroke="#101820" stroke-width="2.42" stroke-linecap="round" stroke-linejoin="round" />
      <path d="M17.7785 0L0 17.7785" transform="matrix(-1 0 0 1 17.90427 0.01753934)" id="Path-8-Copy" fill="none" stroke="#101820" stroke-width="2.42" stroke-linecap="round" stroke-linejoin="round" />
    </g>
  </g>
</svg>